Lab10/pm.vcd
$date
	Sun Nov  1 18:31:32 2020
$end
$version
	Icarus Verilog
$end
$timescale
	1s
$end
$scope module test $end
$var wire 32 ! PC [31:0] $end
$var reg 1 " clk $end
$var reg 1 # done $end
$var reg 1 $ reset $end
$var integer 32 % i [31:0] $end
$scope module pm $end
$var wire 1 & PCSrc $end
$var wire 1 " clk $end
$var wire 1 ' forwardA $end
$var wire 1 ( forwardB $end
$var wire 1 $ reset $end
$var wire 1 ) stall $end
$var wire 1 * zero $end
$var wire 5 + wr_regnum [4:0] $end
$var wire 32 , wr_data [31:0] $end
$var wire 5 - rt [4:0] $end
$var wire 5 . rs [4:0] $end
$var wire 32 / rd2_data [31:0] $end
$var wire 32 0 rd1_data [31:0] $end
$var wire 5 1 rd [4:0] $end
$var wire 6 2 opcode [5:0] $end
$var wire 5 3 old_wr_regnum [4:0] $end
$var wire 32 4 old_inst [31:0] $end
$var wire 32 5 old_forwardBOutput [31:0] $end
$var wire 32 6 old_alu_out_data [31:0] $end
$var wire 1 7 oldRW $end
$var wire 1 8 oldMW $end
$var wire 1 9 oldMTR $end
$var wire 1 : oldMR $end
$var wire 30 ; next_PC [31:2] $end
$var wire 30 < nPC_plus4 [31:2] $end
$var wire 32 = load_data [31:0] $end
$var wire 32 > inst [31:0] $end
$var wire 32 ? imm [31:0] $end
$var wire 6 @ funct [5:0] $end
$var wire 32 A forwardBOutput [31:0] $end
$var wire 32 B forwardAOutput [31:0] $end
$var wire 32 C alu_out_data [31:0] $end
$var wire 1 D RegWrite $end
$var wire 1 E RegDst $end
$var wire 30 F PC_target [31:2] $end
$var wire 30 G PC_plus4 [31:2] $end
$var wire 32 H PC [31:0] $end
$var wire 1 I MemWrite $end
$var wire 1 J MemToReg $end
$var wire 1 K MemRead $end
$var wire 32 L B_data [31:0] $end
$var wire 1 M BEQ $end
$var wire 1 N ALUSrc $end
$var wire 3 O ALUOp [2:0] $end
$scope module Mem2Reg $end
$var wire 1 " clk $end
$var wire 1 P enable $end
$var wire 1 $ reset $end
$var wire 1 8 d $end
$var reg 1 I q $end
$upscope $end
$scope module MemFromReg $end
$var wire 1 " clk $end
$var wire 1 Q enable $end
$var wire 1 $ reset $end
$var wire 1 : d $end
$var reg 1 K q $end
$upscope $end
$scope module PC_reg $end
$var wire 1 " clk $end
$var wire 1 R enable $end
$var wire 1 $ reset $end
$var wire 30 S d [29:0] $end
$var reg 30 T q [29:0] $end
$upscope $end
$scope module Reg2Reg $end
$var wire 1 " clk $end
$var wire 1 U enable $end
$var wire 1 $ reset $end
$var wire 1 7 d $end
$var reg 1 D q $end
$upscope $end
$scope module Reg4Mem2Reg $end
$var wire 1 " clk $end
$var wire 1 V enable $end
$var wire 1 $ reset $end
$var wire 1 9 d $end
$var reg 1 J q $end
$upscope $end
$scope module alu $end
$var wire 32 W out [31:0] $end
$var wire 1 * zero $end
$var wire 32 X inB [31:0] $end
$var wire 32 Y inA [31:0] $end
$var wire 3 Z control [2:0] $end
$upscope $end
$scope module alu_out_dataReg $end
$var wire 1 " clk $end
$var wire 32 [ d [31:0] $end
$var wire 1 \ enable $end
$var wire 1 $ reset $end
$var reg 32 ] q [31:0] $end
$upscope $end
$scope module branch_mux $end
$var wire 30 ^ out [29:0] $end
$var wire 1 & sel $end
$var wire 30 _ temp1 [29:0] $end
$var wire 30 ` temp2 [29:0] $end
$var wire 30 a B [29:0] $end
$var wire 30 b A [29:0] $end
$upscope $end
$scope module data_memory $end
$var wire 32 c addr [31:0] $end
$var wire 1 " clk $end
$var wire 32 d d_out [31:0] $end
$var wire 32 e data_out [31:0] $end
$var wire 32 f internal_data_in [31:0] $end
$var wire 1 K mem_read $end
$var wire 1 I mem_write $end
$var wire 1 $ reset $end
$var wire 1 g valid_address $end
$var wire 19 h index [18:0] $end
$var wire 32 i data_in [31:0] $end
$var integer 32 j i [31:0] $end
$upscope $end
$scope module decode $end
$var wire 1 N ALUSrc $end
$var wire 1 9 MemToReg $end
$var wire 1 E RegDst $end
$var wire 1 7 RegWrite $end
$var wire 6 k funct [5:0] $end
$var wire 1 l nop $end
$var wire 6 m opcode [5:0] $end
$var wire 1 n op0 $end
$var wire 1 8 MemWrite $end
$var wire 1 : MemRead $end
$var wire 1 M BEQ $end
$var wire 3 o ALUOp [2:0] $end
$upscope $end
$scope module fAMux $end
$var wire 32 p B [31:0] $end
$var wire 32 q out [31:0] $end
$var wire 1 ' sel $end
$var wire 32 r temp1 [31:0] $end
$var wire 32 s temp2 [31:0] $end
$var wire 32 t A [31:0] $end
$upscope $end
$scope module fBMux $end
$var wire 32 u B [31:0] $end
$var wire 32 v out [31:0] $end
$var wire 1 ( sel $end
$var wire 32 w temp1 [31:0] $end
$var wire 32 x temp2 [31:0] $end
$var wire 32 y A [31:0] $end
$upscope $end
$scope module forwardBOutputReg $end
$var wire 1 " clk $end
$var wire 32 z d [31:0] $end
$var wire 1 { enable $end
$var wire 1 $ reset $end
$var reg 32 | q [31:0] $end
$upscope $end
$scope module imem $end
$var wire 30 } addr [29:0] $end
$var wire 32 ~ data [31:0] $end
$var reg 32 !" i [31:0] $end
$upscope $end
$scope module imm_mux $end
$var wire 32 "" A [31:0] $end
$var wire 32 #" B [31:0] $end
$var wire 32 $" out [31:0] $end
$var wire 1 N sel $end
$var wire 32 %" temp1 [31:0] $end
$var wire 32 &" temp2 [31:0] $end
$upscope $end
$scope module instReg $end
$var wire 1 " clk $end
$var wire 32 '" d [31:0] $end
$var wire 1 (" enable $end
$var wire 1 )" reset $end
$var reg 32 *" q [31:0] $end
$upscope $end
$scope module nPC_plus4Reg $end
$var wire 1 " clk $end
$var wire 1 +" enable $end
$var wire 1 ," reset $end
$var wire 30 -" d [29:0] $end
$var reg 30 ." q [29:0] $end
$upscope $end
$scope module next_PC_adder $end
$var wire 30 /" in1 [29:0] $end
$var wire 30 0" in2 [29:0] $end
$var wire 30 1" out [29:0] $end
$upscope $end
$scope module rd_mux $end
$var wire 5 2" A [4:0] $end
$var wire 5 3" B [4:0] $end
$var wire 5 4" out [4:0] $end
$var wire 1 E sel $end
$var wire 5 5" temp1 [4:0] $end
$var wire 5 6" temp2 [4:0] $end
$upscope $end
$scope module rf $end
$var wire 1 " clock $end
$var wire 32 7" internal_rdData [31:0] $end
$var wire 1 D rdWriteEnable $end
$var wire 1 $ reset $end
$var wire 32 8" rsData [31:0] $end
$var wire 5 9" rsNum [4:0] $end
$var wire 32 :" rtData [31:0] $end
$var wire 5 ;" rtNum [4:0] $end
$var wire 5 <" rdNum [4:0] $end
$var wire 32 =" rdData [31:0] $end
$var integer 32 >" i [31:0] $end
$upscope $end
$scope module target_PC_adder $end
$var wire 30 ?" in1 [29:0] $end
$var wire 30 @" in2 [29:0] $end
$var wire 30 A" out [29:0] $end
$upscope $end
$scope module wb_mux $end
$var wire 32 B" A [31:0] $end
$var wire 32 C" B [31:0] $end
$var wire 32 D" out [31:0] $end
$var wire 1 J sel $end
$var wire 32 E" temp1 [31:0] $end
$var wire 32 F" temp2 [31:0] $end
$upscope $end
$scope module wr_regnumReg $end
$var wire 1 " clk $end
$var wire 5 G" d [4:0] $end
$var wire 1 H" enable $end
$var wire 1 $ reset $end
$var reg 5 I" q [4:0] $end
$upscope $end
$upscope $end
$upscope $end
$scope module test $end
$scope module pm $end
$scope module rf $end
$var reg 32 J" \r[0] [31:0] $end
$upscope $end
$upscope $end
$upscope $end
$scope module test $end
$scope module pm $end
$scope module rf $end
$var reg 32 K" \r[1] [31:0] $end
$upscope $end
$upscope $end
$upscope $end
$scope module test $end
$scope module pm $end
$scope module rf $end
$var reg 32 L" \r[2] [31:0] $end
$upscope $end
$upscope $end
$upscope $end
$scope module test $end
$scope module pm $end
$scope module rf $end
$var reg 32 M" \r[3] [31:0] $end
$upscope $end
$upscope $end
$upscope $end
$scope module test $end
$scope module pm $end
$scope module rf $end
$var reg 32 N" \r[4] [31:0] $end
$upscope $end
$upscope $end
$upscope $end
$scope module test $end
$scope module pm $end
$scope module rf $end
$var reg 32 O" \r[5] [31:0] $end
$upscope $end
$upscope $end
$upscope $end
$scope module test $end
$scope module pm $end
$scope module rf $end
$var reg 32 P" \r[6] [31:0] $end
$upscope $end
$upscope $end
$upscope $end
$scope module test $end
$scope module pm $end
$scope module rf $end
$var reg 32 Q" \r[7] [31:0] $end
$upscope $end
$upscope $end
$upscope $end
$scope module test $end
$scope module pm $end
$scope module rf $end
$var reg 32 R" \r[8] [31:0] $end
$upscope $end
$upscope $end
$upscope $end
$scope module test $end
$scope module pm $end
$scope module rf $end
$var reg 32 S" \r[9] [31:0] $end
$upscope $end
$upscope $end
$upscope $end
$scope module test $end
$scope module pm $end
$scope module rf $end
$var reg 32 T" \r[10] [31:0] $end
$upscope $end
$upscope $end
$upscope $end
$scope module test $end
$scope module pm $end
$scope module rf $end
$var reg 32 U" \r[11] [31:0] $end
$upscope $end
$upscope $end
$upscope $end
$scope module test $end
$scope module pm $end
$scope module rf $end
$var reg 32 V" \r[12] [31:0] $end
$upscope $end
$upscope $end
$upscope $end
$scope module test $end
$scope module pm $end
$scope module rf $end
$var reg 32 W" \r[13] [31:0] $end
$upscope $end
$upscope $end
$upscope $end
$scope module test $end
$scope module pm $end
$scope module rf $end
$var reg 32 X" \r[14] [31:0] $end
$upscope $end
$upscope $end
$upscope $end
$scope module test $end
$scope module pm $end
$scope module rf $end
$var reg 32 Y" \r[15] [31:0] $end
$upscope $end
$upscope $end
$upscope $end
$scope module test $end
$scope module pm $end
$scope module rf $end
$var reg 32 Z" \r[16] [31:0] $end
$upscope $end
$upscope $end
$upscope $end
$scope module test $end
$scope module pm $end
$scope module rf $end
$var reg 32 [" \r[17] [31:0] $end
$upscope $end
$upscope $end
$upscope $end
$scope module test $end
$scope module pm $end
$scope module rf $end
$var reg 32 \" \r[18] [31:0] $end
$upscope $end
$upscope $end
$upscope $end
$scope module test $end
$scope module pm $end
$scope module rf $end
$var reg 32 ]" \r[19] [31:0] $end
$upscope $end
$upscope $end
$upscope $end
$scope module test $end
$scope module pm $end
$scope module rf $end
$var reg 32 ^" \r[20] [31:0] $end
$upscope $end
$upscope $end
$upscope $end
$scope module test $end
$scope module pm $end
$scope module rf $end
$var reg 32 _" \r[21] [31:0] $end
$upscope $end
$upscope $end
$upscope $end
$scope module test $end
$scope module pm $end
$scope module rf $end
$var reg 32 `" \r[22] [31:0] $end
$upscope $end
$upscope $end
$upscope $end
$scope module test $end
$scope module pm $end
$scope module rf $end
$var reg 32 a" \r[23] [31:0] $end
$upscope $end
$upscope $end
$upscope $end
$scope module test $end
$scope module pm $end
$scope module rf $end
$var reg 32 b" \r[24] [31:0] $end
$upscope $end
$upscope $end
$upscope $end
$scope module test $end
$scope module pm $end
$scope module rf $end
$var reg 32 c" \r[25] [31:0] $end
$upscope $end
$upscope $end
$upscope $end
$scope module test $end
$scope module pm $end
$scope module rf $end
$var reg 32 d" \r[26] [31:0] $end
$upscope $end
$upscope $end
$upscope $end
$scope module test $end
$scope module pm $end
$scope module rf $end
$var reg 32 e" \r[27] [31:0] $end
$upscope $end
$upscope $end
$upscope $end
$scope module test $end
$scope module pm $end
$scope module rf $end
$var reg 32 f" \r[28] [31:0] $end
$upscope $end
$upscope $end
$upscope $end
$scope module test $end
$scope module pm $end
$scope module rf $end
$var reg 32 g" \r[29] [31:0] $end
$upscope $end
$upscope $end
$upscope $end
$scope module test $end
$scope module pm $end
$scope module rf $end
$var reg 32 h" \r[30] [31:0] $end
$upscope $end
$upscope $end
$upscope $end
$scope module test $end
$scope module pm $end
$scope module rf $end
$var reg 32 i" \r[31] [31:0] $end
$upscope $end
$upscope $end
$upscope $end
$enddefinitions $end
#0
$dumpvars
b10000000000010000000000000000 i"
b10000000000010000000000000000 h"
b10000000000010000000000000000 g"
b10000000000010000000000000000 f"
b10000000000010000000000000000 e"
b10000000000010000000000000000 d"
b10000000000010000000000000000 c"
b10000000000010000000000000000 b"
b10000000000010000000000000000 a"
b10000000000010000000000000000 `"
b10000000000010000000000000000 _"
b10000000000010000000000000000 ^"
b10000000000010000000000000000 ]"
b10000000000010000000000000000 \"
b10000000000010000000000000000 ["
b10000000000010000000000000000 Z"
b10000000000010000000000000000 Y"
b10000000000010000000000000000 X"
b10000000000010000000000000000 W"
b10000000000010000000000000000 V"
b10000000000010000000000000000 U"
b10000000000010000000000000000 T"
b10000000000010000000000000000 S"
b10000000000010000000000000000 R"
b10000000000010000000000000000 Q"
b10000000000010000000000000000 P"
b10000000000010000000000000000 O"
b10000000000010000000000000000 N"
b10000000000010000000000000000 M"
b10000000000010000000000000000 L"
b10000000000010000000000000000 K"
b0 J"
bx I"
1H"
bx G"
bx F"
bx E"
bx D"
bx C"
bx B"
bx A"
bx @"
bx ?"
b100000 >"
bx ="
bx <"
bx ;"
bx :"
bx 9"
bx 8"
bx 7"
bx 6"
bx 5"
bx 4"
bx 3"
bx 2"
bx 1"
b1 0"
bx /"
bx ."
bx -"
1,"
x+"
bx *"
1)"
x("
bx '"
bx &"
bx %"
bx $"
bx #"
bx ""
b100000000 !"
bx ~
bx }
bx |
1{
bx z
bx y
bx x
bx w
bx v
bx u
bx t
bx s
bx r
bx q
bx p
bx o
xn
bx m
xl
bx k
b1000000000000000000 j
bx i
bx h
xg
bx f
bx e
bx d
bx c
bx b
bx a
bx `
bx _
bx ^
bx ]
1\
bx [
bx Z
bx Y
bx X
bx W
1V
1U
bx T
bx S
xR
1Q
1P
bx O
xN
xM
bx L
xK
xJ
xI
bx00 H
bx G
bx F
xE
xD
bx C
bx B
bx A
bx @
bx ?
bx >
bx =
bx <
bx ;
x:
x9
x8
x7
bx 6
bx 5
bx 4
bx 3
bx 2
bx 1
bx 0
bx /
bx .
bx -
bx ,
bx +
x*
x)
x(
x'
x&
b100000 %
1$
0#
0"
bx00 !
$end
#4
b0 3
b0 4"
b0 G"
b0 6"
b0 5"
b0 @"
b0 &"
0(
0'
1R
1+"
1("
b11011110101011011011111011101111 d
b0 h
b0 ,
b0 ="
b0 D"
b100000000000000000000 /"
b100000000000000000000 }
b0 @
b0 k
1n
b0 2
b0 m
b0 1
b0 3"
b0 -
b0 2"
b0 ;"
b0 .
b0 9"
b0 ?
b0 #"
0)
b0 F"
0g
b0 s
b0 x
b0 E"
b10000000000000000000000 H
b10000000000000000000000 !
b100000000000000000000 T
b0 <
b0 ."
b0 ?"
b0 >
b0 *"
0D
0K
0I
0J
b0 A
b0 i
b0 |
b0 C
b0 ]
b0 c
b0 p
b0 u
b0 B"
b0 +
b0 <"
b0 I"
1"
#5
b0 L
b0 X
b0 $"
b0 %"
b0 5
b0 v
b0 z
b0 ""
b0 B
b0 Y
b0 q
b0 w
b0 r
b0 7"
b0 /
b0 y
b0 :"
b0 0
b0 t
b0 8"
#6
07
b100000000000000000001 ;
b100000000000000000001 S
b100000000000000000001 ^
b0 `
b100000000000000000001 _
0&
1E
0N
1*
b0 O
b0 Z
b0 o
1l
b0 F
b0 a
b0 A"
b100000000000000000001 G
b100000000000000000001 b
b100000000000000000001 -"
b100000000000000000001 1"
0M
09
0:
08
#7
0,"
0)"
b0 6
b0 W
b0 [
b10001110100000100000000000000000 4
b10001110100000100000000000000000 ~
b10001110100000100000000000000000 '"
b0 =
b0 e
b0 C"
b0 f
0$
#8
0"
#12
0n
b100011 2
b100011 m
b10 -
b10 2"
b10 ;"
b10100 .
b10100 9"
b100000000000000000001 /"
b100000000000000000001 }
b10001110100000100000000000000000 >
b10001110100000100000000000000000 *"
b100000000000000000001 <
b100000000000000000001 ."
b100000000000000000001 ?"
b10000000000000000000100 H
b10000000000000000000100 !
b100000000000000000001 T
1"
#13
b10000000000010000000000000000 L
b10000000000010000000000000000 X
b10000000000010000000000000000 $"
b10000000000010000000000000000 %"
b10000000000010000000000000000 5
b10000000000010000000000000000 v
b10000000000010000000000000000 z
b10000000000010000000000000000 ""
b10000000000010000000000000000 B
b10000000000010000000000000000 Y
b10000000000010000000000000000 q
b10000000000010000000000000000 w
b10000000000010000000000000000 r
b10000000000010000000000000000 /
b10000000000010000000000000000 y
b10000000000010000000000000000 :"
b10000000000010000000000000000 0
b10000000000010000000000000000 t
b10000000000010000000000000000 8"
#14
b10 3
b10 4"
b10 G"
b0 L
b0 X
b0 $"
17
b10 5"
b0 %"
b100000000000000000010 ;
b100000000000000000010 S
b100000000000000000010 ^
0E
1N
b100000000000000000010 _
0l
19
1:
b100000000000000000010 G
b100000000000000000010 b
b100000000000000000010 -"
b100000000000000000010 1"
b100000000000000000001 F
b100000000000000000001 a
b100000000000000000001 A"
#15
0*
b10001110100000110000000000000100 4
b10001110100000110000000000000100 ~
b10001110100000110000000000000100 '"
#16
b10000000000010000000000000000 6
b10000000000010000000000000000 W
b10000000000010000000000000000 [
0"
#20
b11 3
b11 4"
b11 G"
b100 L
b100 X
b100 $"
b10000000000010000000000000000 w
b0 x
b11 5"
b100 @"
b100 &"
b1 d
b100000000000000 h
0(
b100000000000000000010 /"
b100000000000000000010 }
b100 @
b100 k
b11 -
b11 2"
b11 ;"
b100 ?
b100 #"
1g
b10000000000000000001000 H
b10000000000000000001000 !
b100000000000000000010 T
b100000000000000000010 <
b100000000000000000010 ."
b100000000000000000010 ?"
b10001110100000110000000000000100 >
b10001110100000110000000000000100 *"
1D
1K
1J
b10000000000010000000000000000 A
b10000000000010000000000000000 i
b10000000000010000000000000000 |
b10000000000010000000000000000 C
b10000000000010000000000000000 ]
b10000000000010000000000000000 c
b10000000000010000000000000000 p
b10000000000010000000000000000 u
b10000000000010000000000000000 B"
b10 +
b10 <"
b10 I"
1"
#22
b100000000000000000011 ;
b100000000000000000011 S
b100000000000000000011 ^
b100000000000000000011 _
b10000000000010000000000000100 6
b10000000000010000000000000100 W
b10000000000010000000000000100 [
b100000000000000000011 G
b100000000000000000011 b
b100000000000000000011 -"
b100000000000000000011 1"
b100000000000000000110 F
b100000000000000000110 a
b100000000000000000110 A"
#23
b1 ,
b1 ="
b1 D"
b1 F"
b11000100010000000100000 4
b11000100010000000100000 ~
b11000100010000000100000 '"
b1 =
b1 e
b1 C"
b10000000000010000000000000000 f
#24
b1 7"
0"
#28
0R
0+"
0("
b10000000000010000000000000100 B
b10000000000010000000000000100 Y
b10000000000010000000000000100 q
1)
b0 r
b10000000000010000000000000100 s
b10 3
b10 4"
b10 G"
1'
b10000000100000 L
b10000000100000 X
b10000000100000 $"
b11111111 d
b100000000000001 h
b10 5"
b10000000100000 @"
b10000000100000 &"
b100000 @
b100000 k
1n
b0 2
b0 m
b100 1
b100 3"
b10 -
b10 2"
b10 ;"
b11 .
b11 9"
b10000000100000 ?
b10000000100000 #"
b100000000000000000011 /"
b100000000000000000011 }
b11 +
b11 <"
b11 I"
b10000000000010000000000000100 C
b10000000000010000000000000100 ]
b10000000000010000000000000100 c
b10000000000010000000000000100 p
b10000000000010000000000000100 u
b10000000000010000000000000100 B"
b1 L"
b11000100010000000100000 >
b11000100010000000100000 *"
b100000000000000000011 <
b100000000000000000011 ."
b100000000000000000011 ?"
b10000000000000000001100 H
b10000000000000000001100 !
b100000000000000000011 T
1"
#29
b1 5
b1 v
b1 z
b1 ""
b1 w
b1 /
b1 y
b1 :"
#30
b100 3
b100 4"
b100 G"
b1 L
b1 X
b1 $"
b0 5"
b100 6"
b1 %"
b0 &"
b100000000000000000100 ;
b100000000000000000100 S
b100000000000000000100 ^
1E
0N
b100000000000000000100 _
b10000000000010010000000100100 6
b10000000000010010000000100100 W
b10000000000010010000000100100 [
09
0:
b100000000000000000100 G
b100000000000000000100 b
b100000000000000000100 -"
b100000000000000000100 1"
b100000010000000100011 F
b100000010000000100011 a
b100000010000000100011 A"
#31
b11111111 ,
b11111111 ="
b11111111 D"
b11111111 F"
b11111111 =
b11111111 e
b11111111 C"
b10001110100001010000000000001000 4
b10001110100001010000000000001000 ~
b10001110100001010000000000001000 '"
#32
b11111111 7"
b10000000000010000000000000101 6
b10000000000010000000000000101 W
b10000000000010000000000000101 [
0"
#36
b10000000000010000000000000000 r
1R
1+"
1("
b10000000000010000000000000000 B
b10000000000010000000000000000 Y
b10000000000010000000000000000 q
b10000000000010000000000000101 ,
b10000000000010000000000000101 ="
b10000000000010000000000000101 D"
0'
0)
b0 F"
b0 s
b10000000000010000000000000101 E"
0K
0J
b11111111 M"
b1 A
b1 i
b1 |
b10000000000010000000000000101 C
b10000000000010000000000000101 ]
b10000000000010000000000000101 c
b10000000000010000000000000101 p
b10000000000010000000000000101 u
b10000000000010000000000000101 B"
b100 +
b100 <"
b100 I"
1"
#37
b11111111 B
b11111111 Y
b11111111 q
b11111111 r
b10000000000010000000000000101 7"
b11111111 0
b11111111 t
b11111111 8"
#39
b100000000 6
b100000000 W
b100000000 [
b0 =
b0 e
b0 C"
b1 f
#40
0"
#44
b0 3
b0 4"
b0 G"
b11011110101011011011111011101111 d
b1000000 h
b100000000 ,
b100000000 ="
b100000000 D"
b0 6"
b1000 @"
0g
b100000000 E"
b1000 @
b1000 k
0n
b100011 2
b100011 m
b0 1
b0 3"
b101 -
b101 2"
b101 ;"
b10100 .
b10100 9"
b1000 ?
b1000 #"
b100000000000000000100 /"
b100000000000000000100 }
b100000000 C
b100000000 ]
b100000000 c
b100000000 p
b100000000 u
b100000000 B"
b10000000000010000000000000101 N"
b10001110100001010000000000001000 >
b10001110100001010000000000001000 *"
b100000000000000000100 <
b100000000000000000100 ."
b100000000000000000100 ?"
b10000000000000000010000 H
b10000000000000000010000 !
b100000000000000000100 T
1"
#45
b10000000000010000000000000000 L
b10000000000010000000000000000 X
b10000000000010000000000000000 $"
b10000000000010000000000000000 %"
b10000000000010000000000000000 5
b10000000000010000000000000000 v
b10000000000010000000000000000 z
b10000000000010000000000000000 ""
b10000000000010000000000000000 B
b10000000000010000000000000000 Y
b10000000000010000000000000000 q
b10000000000010000000000000000 w
b10000000000010000000000000000 r
b100000000 7"
b10000000000010000000000000000 /
b10000000000010000000000000000 y
b10000000000010000000000000000 :"
b10000000000010000000000000000 0
b10000000000010000000000000000 t
b10000000000010000000000000000 8"
#46
b101 3
b101 4"
b101 G"
b1000 L
b1000 X
b1000 $"
b101 5"
b0 %"
b1000 &"
b100000000000000000101 ;
b100000000000000000101 S
b100000000000000000101 ^
0E
1N
b100000000000000000101 _
1*
19
1:
b100000000000000000101 G
b100000000000000000101 b
b100000000000000000101 -"
b100000000000000000101 1"
b100000000000000001100 F
b100000000000000001100 a
b100000000000000001100 A"
#47
0*
b11001010011000000100000 4
b11001010011000000100000 ~
b11001010011000000100000 '"
#48
b10000000000010000000000001000 6
b10000000000010000000000001000 W
b10000000000010000000000001000 [
0"
#52
b10000000000010000000000001000 5
b10000000000010000000000001000 v
b10000000000010000000000001000 z
b10000000000010000000000001000 ""
b11000000100000 L
b11000000100000 X
b11000000100000 $"
b0 w
b10000000000010000000000001000 x
b11000000100000 @"
b11000000100000 &"
b10000000000 d
b100000000000010 h
b0 ,
b0 ="
b0 D"
1(
b100000000000000000101 /"
b100000000000000000101 }
b100000 @
b100000 k
1n
b0 2
b0 m
b110 1
b110 3"
b11 .
b11 9"
b11000000100000 ?
b11000000100000 #"
1g
b0 E"
b10000000000000000010100 H
b10000000000000000010100 !
b100000000000000000101 T
b100000000000000000101 <
b100000000000000000101 ."
b100000000000000000101 ?"
b11001010011000000100000 >
b11001010011000000100000 *"
1K
1J
b100000000 N"
b10000000000010000000000000000 A
b10000000000010000000000000000 i
b10000000000010000000000000000 |
b10000000000010000000000001000 C
b10000000000010000000000001000 ]
b10000000000010000000000001000 c
b10000000000010000000000001000 p
b10000000000010000000000001000 u
b10000000000010000000000001000 B"
b101 +
b101 <"
b101 I"
1"
#53
b11111111 B
b11111111 Y
b11111111 q
b11111111 r
b0 7"
b11111111 0
b11111111 t
b11111111 8"
#54
0R
0+"
0("
1)
b110 3
b110 4"
b110 G"
b10000000000010000000000001000 L
b10000000000010000000000001000 X
b10000000000010000000000001000 $"
b100000000000000000110 ;
b100000000000000000110 S
b100000000000000000110 ^
b0 5"
b110 6"
b10000000000010000000000001000 %"
b0 &"
b100000000000000000110 _
1E
0N
b100000000000000000110 G
b100000000000000000110 b
b100000000000000000110 -"
b100000000000000000110 1"
09
0:
b100000011000000100101 F
b100000011000000100101 a
b100000011000000100101 A"
#55
b10000000000 ,
b10000000000 ="
b10000000000 D"
b10000000000 F"
b10001110100001110000000000001100 4
b10001110100001110000000000001100 ~
b10001110100001110000000000001100 '"
b10000000000 =
b10000000000 e
b10000000000 C"
b10000000000010000000000000000 f
#56
b10000000000 7"
b10000000000010000000100000111 6
b10000000000010000000100000111 W
b10000000000010000000100000111 [
0"
#60
b10000000000010000000000000000 L
b10000000000010000000000000000 X
b10000000000010000000000000000 $"
b10000000000010000000000000000 w
b10000000000010000000000000000 %"
0(
b11011110101011011011111011101111 d
b100000001000001 h
b10000000000010000000000000000 5
b10000000000010000000000000000 v
b10000000000010000000000000000 z
b10000000000010000000000000000 ""
b10000000000010000000100000111 ,
b10000000000010000000100000111 ="
b10000000000010000000100000111 D"
1R
1+"
1("
b0 x
b10000000000010000000100000111 E"
b0 F"
0)
b110 +
b110 <"
b110 I"
b10000000000010000000100000111 C
b10000000000010000000100000111 ]
b10000000000010000000100000111 c
b10000000000010000000100000111 p
b10000000000010000000100000111 u
b10000000000010000000100000111 B"
b10000000000010000000000001000 A
b10000000000010000000000001000 i
b10000000000010000000000001000 |
b10000000000 O"
0J
0K
1"
#61
b10000000000 L
b10000000000 X
b10000000000 $"
b10000000000 %"
b10000000000 5
b10000000000 v
b10000000000 z
b10000000000 ""
b10000000000 w
b10000000000010000000100000111 7"
b10000000000 /
b10000000000 y
b10000000000 :"
#63
b10011111111 6
b10011111111 W
b10011111111 [
b0 =
b0 e
b0 C"
b10000000000010000000000001000 f
#64
0"
#68
b0 3
b0 4"
b0 G"
b0 6"
b1100 @"
b100111111 h
b10011111111 ,
b10011111111 ="
b10011111111 D"
b100000000000000000110 /"
b100000000000000000110 }
b1100 @
b1100 k
0n
b100011 2
b100011 m
b0 1
b0 3"
b111 -
b111 2"
b111 ;"
b10100 .
b10100 9"
b1100 ?
b1100 #"
0g
b10011111111 E"
b10000000000000000011000 H
b10000000000000000011000 !
b100000000000000000110 T
b100000000000000000110 <
b100000000000000000110 ."
b100000000000000000110 ?"
b10001110100001110000000000001100 >
b10001110100001110000000000001100 *"
b10000000000010000000100000111 P"
b10000000000 A
b10000000000 i
b10000000000 |
b10011111111 C
b10011111111 ]
b10011111111 c
b10011111111 p
b10011111111 u
b10011111111 B"
1"
#69
b10000000000010000000000000000 L
b10000000000010000000000000000 X
b10000000000010000000000000000 $"
b10000000000010000000000000000 %"
b10000000000010000000000000000 5
b10000000000010000000000000000 v
b10000000000010000000000000000 z
b10000000000010000000000000000 ""
b10000000000010000000000000000 B
b10000000000010000000000000000 Y
b10000000000010000000000000000 q
b10000000000010000000000000000 w
b10000000000010000000000000000 r
b10011111111 7"
b10000000000010000000000000000 /
b10000000000010000000000000000 y
b10000000000010000000000000000 :"
b10000000000010000000000000000 0
b10000000000010000000000000000 t
b10000000000010000000000000000 8"
#70
b111 3
b111 4"
b111 G"
b1100 L
b1100 X
b1100 $"
b100000000000000000111 ;
b100000000000000000111 S
b100000000000000000111 ^
b111 5"
b0 %"
b1100 &"
b100000000000000000111 _
0E
1N
1*
b100000000000000000111 G
b100000000000000000111 b
b100000000000000000111 -"
b100000000000000000111 1"
19
1:
b100000000000000010010 F
b100000000000000010010 a
b100000000000000010010 A"
#71
0*
b10001010100000000100000 4
b10001010100000000100000 ~
b10001010100000000100000 '"
b10000000000 f
#72
b10000000000010000000000001100 6
b10000000000010000000000001100 W
b10000000000010000000000001100 [
0"
#76
b101 3
b101 4"
b101 G"
b100000000100000 L
b100000000100000 X
b100000000100000 $"
b1100100 d
b100000000000011 h
b0 ,
b0 ="
b0 D"
b101 5"
b100000000100000 @"
b100000000100000 &"
1g
b0 E"
b100000 @
b100000 k
1n
b0 2
b0 m
b1000 1
b1000 3"
b101 -
b101 2"
b101 ;"
b10 .
b10 9"
b100000000100000 ?
b100000000100000 #"
b100000000000000000111 /"
b100000000000000000111 }
b111 +
b111 <"
b111 I"
b10000000000010000000000001100 C
b10000000000010000000000001100 ]
b10000000000010000000000001100 c
b10000000000010000000000001100 p
b10000000000010000000000001100 u
b10000000000010000000000001100 B"
b10000000000010000000000000000 A
b10000000000010000000000000000 i
b10000000000010000000000000000 |
b10011111111 P"
1J
1K
b10001010100000000100000 >
b10001010100000000100000 *"
b100000000000000000111 <
b100000000000000000111 ."
b100000000000000000111 ?"
b10000000000000000011100 H
b10000000000000000011100 !
b100000000000000000111 T
1"
#77
b10000000000 5
b10000000000 v
b10000000000 z
b10000000000 ""
b1 B
b1 Y
b1 q
b10000000000 w
b1 r
b0 7"
b10000000000 /
b10000000000 y
b10000000000 :"
b1 0
b1 t
b1 8"
#78
b1000 3
b1000 4"
b1000 G"
b10000000000 L
b10000000000 X
b10000000000 $"
b0 5"
b1000 6"
b10000000000 %"
b0 &"
b100000000000000001000 ;
b100000000000000001000 S
b100000000000000001000 ^
1E
0N
b100000000000000001000 _
09
0:
b100000000000000001000 G
b100000000000000001000 b
b100000000000000001000 -"
b100000000000000001000 1"
b100000100000000100111 F
b100000100000000100111 a
b100000100000000100111 A"
#79
b1100100 ,
b1100100 ="
b1100100 D"
b1100100 F"
b111001110100100000100000 4
b111001110100100000100000 ~
b111001110100100000100000 '"
b1100100 =
b1100100 e
b1100100 C"
b10000000000010000000000000000 f
#80
b1100100 7"
b10000000001 6
b10000000001 W
b10000000001 [
0"
