Lab4/am.vcd
$date
	Sun Sep 20 19:38:11 2020
$end
$version
	Icarus Verilog
$end
$timescale
	1s
$end
$scope module arith_machine_test $end
$var wire 1 ! except $end
$var reg 1 " clock $end
$var reg 1 # done $end
$var reg 1 $ reset $end
$var integer 32 % i [31:0] $end
$scope module am $end
$var wire 1 & PC_en $end
$var wire 1 " clock $end
$var wire 1 $ reset $end
$var wire 32 ' the_four [31:0] $end
$var wire 1 ( zero $end
$var wire 5 ) rt [4:0] $end
$var wire 5 * rs [4:0] $end
$var wire 1 + rd_src $end
$var wire 5 , rd [4:0] $end
$var wire 1 - overflow $end
$var wire 6 . op_wire [5:0] $end
$var wire 32 / nextPC [31:0] $end
$var wire 1 0 negative $end
$var wire 30 1 inst_in [29:0] $end
$var wire 32 2 inst [31:0] $end
$var wire 6 3 func_wire [5:0] $end
$var wire 1 ! except $end
$var wire 2 4 alu_src2 [1:0] $end
$var wire 3 5 alu_op [2:0] $end
$var wire 32 6 ZeroExtImm [31:0] $end
$var wire 1 7 W_en $end
$var wire 32 8 W_data [31:0] $end
$var wire 5 9 W_addr_mux_out [4:0] $end
$var wire 32 : SignExtImm [31:0] $end
$var wire 32 ; PC [31:0] $end
$var wire 32 < B_imm_mux3 [31:0] $end
$var wire 32 = B_data [31:0] $end
$var wire 32 > A_data [31:0] $end
$scope module PC_reg $end
$var wire 1 " clock $end
$var wire 1 ? enable $end
$var wire 1 $ reset $end
$var wire 32 @ d [31:0] $end
$var reg 32 A q [31:0] $end
$upscope $end
$scope module alu1 $end
$var wire 1 0 negative $end
$var wire 32 B out [31:0] $end
$var wire 1 - overflow $end
$var wire 1 ( zero $end
$var wire 32 C inB [31:0] $end
$var wire 32 D inA [31:0] $end
$var wire 3 E control [2:0] $end
$upscope $end
$scope module im $end
$var wire 30 F addr [29:0] $end
$var wire 32 G data [31:0] $end
$var reg 32 H i [31:0] $end
$upscope $end
$scope module m2 $end
$var wire 32 I A [31:0] $end
$var wire 32 J B [31:0] $end
$var wire 32 K out [31:0] $end
$var wire 32 L temp1 [31:0] $end
$var wire 32 M temp2 [31:0] $end
$var wire 1 + sel $end
$upscope $end
$scope module m3 $end
$var wire 32 N B [31:0] $end
$var wire 32 O C [31:0] $end
$var wire 32 P wAB [31:0] $end
$var wire 2 Q sel [1:0] $end
$var wire 32 R out [31:0] $end
$var wire 32 S A [31:0] $end
$scope module mAB $end
$var wire 32 T B [31:0] $end
$var wire 32 U out [31:0] $end
$var wire 1 V sel $end
$var wire 32 W temp1 [31:0] $end
$var wire 32 X temp2 [31:0] $end
$var wire 32 Y A [31:0] $end
$upscope $end
$scope module mfinal $end
$var wire 32 Z A [31:0] $end
$var wire 32 [ B [31:0] $end
$var wire 32 \ out [31:0] $end
$var wire 1 ] sel $end
$var wire 32 ^ temp1 [31:0] $end
$var wire 32 _ temp2 [31:0] $end
$upscope $end
$upscope $end
$scope module md $end
$var wire 1 ` addW $end
$var wire 1 a andW $end
$var wire 1 ! except $end
$var wire 6 b funct [5:0] $end
$var wire 1 c norW $end
$var wire 6 d opcode [5:0] $end
$var wire 1 e orW $end
$var wire 1 + rd_src $end
$var wire 1 f subW $end
$var wire 1 7 writeenable $end
$var wire 1 g xorW $end
$var wire 1 h xoriW $end
$var wire 1 i oriW $end
$var wire 1 j andiW $end
$var wire 2 k alu_src2 [1:0] $end
$var wire 3 l alu_op [2:0] $end
$var wire 1 m addiW $end
$upscope $end
$scope module pcplus4 $end
$var wire 3 n control [2:0] $end
$var wire 32 o inA [31:0] $end
$var wire 32 p inB [31:0] $end
$var wire 1 q negative $end
$var wire 32 r out [31:0] $end
$var wire 1 s overflow $end
$var wire 1 t zero $end
$upscope $end
$scope module rf $end
$var wire 1 " clock $end
$var wire 32 u rdData [31:0] $end
$var wire 5 v rdNum [4:0] $end
$var wire 1 7 rdWriteEnable $end
$var wire 1 $ reset $end
$var wire 32 w rsData [31:0] $end
$var wire 5 x rsNum [4:0] $end
$var wire 32 y rtData [31:0] $end
$var wire 5 z rtNum [4:0] $end
$var integer 32 { i [31:0] $end
$upscope $end
$upscope $end
$upscope $end
$scope module arith_machine_test $end
$scope module am $end
$scope module rf $end
$var reg 32 | \r[0] [31:0] $end
$upscope $end
$upscope $end
$upscope $end
$scope module arith_machine_test $end
$scope module am $end
$scope module rf $end
$var reg 32 } \r[1] [31:0] $end
$upscope $end
$upscope $end
$upscope $end
$scope module arith_machine_test $end
$scope module am $end
$scope module rf $end
$var reg 32 ~ \r[2] [31:0] $end
$upscope $end
$upscope $end
$upscope $end
$scope module arith_machine_test $end
$scope module am $end
$scope module rf $end
$var reg 32 !" \r[3] [31:0] $end
$upscope $end
$upscope $end
$upscope $end
$scope module arith_machine_test $end
$scope module am $end
$scope module rf $end
$var reg 32 "" \r[4] [31:0] $end
$upscope $end
$upscope $end
$upscope $end
$scope module arith_machine_test $end
$scope module am $end
$scope module rf $end
$var reg 32 #" \r[5] [31:0] $end
$upscope $end
$upscope $end
$upscope $end
$scope module arith_machine_test $end
$scope module am $end
$scope module rf $end
$var reg 32 $" \r[6] [31:0] $end
$upscope $end
$upscope $end
$upscope $end
$scope module arith_machine_test $end
$scope module am $end
$scope module rf $end
$var reg 32 %" \r[7] [31:0] $end
$upscope $end
$upscope $end
$upscope $end
$scope module arith_machine_test $end
$scope module am $end
$scope module rf $end
$var reg 32 &" \r[8] [31:0] $end
$upscope $end
$upscope $end
$upscope $end
$scope module arith_machine_test $end
$scope module am $end
$scope module rf $end
$var reg 32 '" \r[9] [31:0] $end
$upscope $end
$upscope $end
$upscope $end
$scope module arith_machine_test $end
$scope module am $end
$scope module rf $end
$var reg 32 (" \r[10] [31:0] $end
$upscope $end
$upscope $end
$upscope $end
$scope module arith_machine_test $end
$scope module am $end
$scope module rf $end
$var reg 32 )" \r[11] [31:0] $end
$upscope $end
$upscope $end
$upscope $end
$scope module arith_machine_test $end
$scope module am $end
$scope module rf $end
$var reg 32 *" \r[12] [31:0] $end
$upscope $end
$upscope $end
$upscope $end
$scope module arith_machine_test $end
$scope module am $end
$scope module rf $end
$var reg 32 +" \r[13] [31:0] $end
$upscope $end
$upscope $end
$upscope $end
$scope module arith_machine_test $end
$scope module am $end
$scope module rf $end
$var reg 32 ," \r[14] [31:0] $end
$upscope $end
$upscope $end
$upscope $end
$scope module arith_machine_test $end
$scope module am $end
$scope module rf $end
$var reg 32 -" \r[15] [31:0] $end
$upscope $end
$upscope $end
$upscope $end
$scope module arith_machine_test $end
$scope module am $end
$scope module rf $end
$var reg 32 ." \r[16] [31:0] $end
$upscope $end
$upscope $end
$upscope $end
$scope module arith_machine_test $end
$scope module am $end
$scope module rf $end
$var reg 32 /" \r[17] [31:0] $end
$upscope $end
$upscope $end
$upscope $end
$scope module arith_machine_test $end
$scope module am $end
$scope module rf $end
$var reg 32 0" \r[18] [31:0] $end
$upscope $end
$upscope $end
$upscope $end
$scope module arith_machine_test $end
$scope module am $end
$scope module rf $end
$var reg 32 1" \r[19] [31:0] $end
$upscope $end
$upscope $end
$upscope $end
$scope module arith_machine_test $end
$scope module am $end
$scope module rf $end
$var reg 32 2" \r[20] [31:0] $end
$upscope $end
$upscope $end
$upscope $end
$scope module arith_machine_test $end
$scope module am $end
$scope module rf $end
$var reg 32 3" \r[21] [31:0] $end
$upscope $end
$upscope $end
$upscope $end
$scope module arith_machine_test $end
$scope module am $end
$scope module rf $end
$var reg 32 4" \r[22] [31:0] $end
$upscope $end
$upscope $end
$upscope $end
$scope module arith_machine_test $end
$scope module am $end
$scope module rf $end
$var reg 32 5" \r[23] [31:0] $end
$upscope $end
$upscope $end
$upscope $end
$scope module arith_machine_test $end
$scope module am $end
$scope module rf $end
$var reg 32 6" \r[24] [31:0] $end
$upscope $end
$upscope $end
$upscope $end
$scope module arith_machine_test $end
$scope module am $end
$scope module rf $end
$var reg 32 7" \r[25] [31:0] $end
$upscope $end
$upscope $end
$upscope $end
$scope module arith_machine_test $end
$scope module am $end
$scope module rf $end
$var reg 32 8" \r[26] [31:0] $end
$upscope $end
$upscope $end
$upscope $end
$scope module arith_machine_test $end
$scope module am $end
$scope module rf $end
$var reg 32 9" \r[27] [31:0] $end
$upscope $end
$upscope $end
$upscope $end
$scope module arith_machine_test $end
$scope module am $end
$scope module rf $end
$var reg 32 :" \r[28] [31:0] $end
$upscope $end
$upscope $end
$upscope $end
$scope module arith_machine_test $end
$scope module am $end
$scope module rf $end
$var reg 32 ;" \r[29] [31:0] $end
$upscope $end
$upscope $end
$upscope $end
$scope module arith_machine_test $end
$scope module am $end
$scope module rf $end
$var reg 32 <" \r[30] [31:0] $end
$upscope $end
$upscope $end
$upscope $end
$scope module arith_machine_test $end
$scope module am $end
$scope module rf $end
$var reg 32 =" \r[31] [31:0] $end
$upscope $end
$upscope $end
$upscope $end
$enddefinitions $end
#0
$dumpvars
b0 ="
b0 <"
b0 ;"
b0 :"
b0 9"
b0 8"
b0 7"
b0 6"
b0 5"
b0 4"
b0 3"
b0 2"
b0 1"
b0 0"
b0 /"
b0 ."
b0 -"
b0 ,"
b0 +"
b0 *"
b0 )"
b0 ("
b0 '"
b0 &"
b0 %"
b0 $"
b0 #"
b0 ""
b0 !"
b0 ~
b0 }
b0 |
b100000 {
b110 z
b0 y
b0 x
b0 w
b110 v
b1100100 u
0t
0s
b100 r
0q
b100 p
b0 o
b10 n
1m
b10 l
b1 k
0j
0i
0h
0g
0f
0e
b1000 d
0c
b100100 b
0a
0`
b0 _
b1100100 ^
0]
b1100100 \
b1100100 [
b1100100 Z
b0 Y
b1100100 X
b0 W
1V
b1100100 U
b1100100 T
b0 S
b1100100 R
b1 Q
b1100100 P
b1100100 O
b1100100 N
b110 M
b0 L
b110 K
b110 J
b0 I
b100000000 H
b100000000001100000000001100100 G
b0 F
b10 E
b0 D
b1100100 C
b1100100 B
b0 A
b100 @
1?
b0 >
b0 =
b1100100 <
b0 ;
b1100100 :
b110 9
b1100100 8
17
b1100100 6
b10 5
b1 4
b100100 3
b100000000001100000000001100100 2
b0 1
00
b100 /
b1000 .
0-
b0 ,
1+
b0 *
b110 )
0(
b100 '
1&
b100000 %
1$
0#
0"
0!
$end
#3
0$
#5
b10011011 <
b10011011 C
b10011011 R
b10011011 \
b10011011 ^
b111 9
b111 v
b11111111 8
b11111111 B
b11111111 u
b10011011 P
b10011011 U
b10011011 Z
b111 K
b10011011 X
b111 M
b1000 /
b1000 @
b1000 r
b10011011 6
b10011011 O
b10011011 [
b10011011 :
b10011011 N
b10011011 T
b11011 3
b11011 b
b111 J
b111 )
b111 z
b1100100 >
b1100100 D
b1100100 w
b110 *
b110 x
b100000110001110000000010011011 2
b100000110001110000000010011011 G
b1 1
b1 F
b100 ;
b100 A
b100 o
b1100100 $"
b0 =
b0 S
b0 Y
b0 y
1"
#10
0"
#15
0!
17
0(
b1100100 W
b11001000 8
b11001000 B
b11001000 u
b1100100 <
b1100100 C
b1100100 R
b1100100 \
0V
b1000 L
b1100100 ^
b0 4
b0 Q
b0 k
0+
b1000 9
b1000 v
b1100100 P
b1100100 U
b1100100 Z
b10 5
b10 E
b10 l
b1000 K
b0 X
1`
b0 M
b1100 /
b1100 @
b1100 r
b100000000100000 6
b100000000100000 O
b100000000100000 [
b100000000100000 :
b100000000100000 N
b100000000100000 T
b100000 3
b100000 b
0m
b0 .
b0 d
b1000 I
b1000 ,
b110 J
b110 )
b110 z
b110001100100000000100000 2
b110001100100000000100000 G
b10 1
b10 F
b11111111 %"
b1100100 =
b1100100 S
b1100100 Y
b1100100 y
b1000 ;
b1000 A
b1000 o
1"
#20
0"
#25
b11 5
b11 E
b11 l
b11001000 <
b11001000 C
b11001000 R
b11001000 \
b1001 9
b1001 v
b11001000 ^
b110111 8
b110111 B
b110111 u
b1001 K
b11001000 P
b11001000 U
b11001000 Z
0`
1f
b1001 L
b11001000 W
b10000 /
b10000 @
b10000 r
b100100000100010 6
b100100000100010 O
b100100000100010 [
b100100000100010 :
b100100000100010 N
b100100000100010 T
b100010 3
b100010 b
b1001 I
b1001 ,
b1000 J
b11001000 =
b11001000 S
b11001000 Y
b11001000 y
b1000 )
b1000 z
b11111111 >
b11111111 D
b11111111 w
b111 *
b111 x
b111010000100100000100010 2
b111010000100100000100010 G
b11 1
b11 F
b1100 ;
b1100 A
b1100 o
b11001000 &"
1"
#30
0"
#35
10
0(
b11111111 <
b11111111 C
b11111111 R
b11111111 \
b1010 9
b1010 v
b11111111 ^
b1010 K
b11111111 P
b11111111 U
b11111111 Z
b11111111111111111111111111001001 8
b11111111111111111111111111001001 B
b11111111111111111111111111001001 u
b1010 L
b11111111 W
b10100 /
b10100 @
b10100 r
b101000000100010 6
b101000000100010 O
b101000000100010 [
b101000000100010 :
b101000000100010 N
b101000000100010 T
b1010 I
b1010 ,
b111 J
b11111111 =
b11111111 S
b11111111 Y
b11111111 y
b111 )
b111 z
b11001000 >
b11001000 D
b11001000 w
b1000 *
b1000 x
b1000001110101000000100010 2
b1000001110101000000100010 G
b100 1
b100 F
b110111 '"
b10000 ;
b10000 A
b10000 o
1"
#40
0"
#45
0!
17
00
b100101100 8
b100101100 B
b100101100 u
b10 5
b10 E
b10 l
b1100100 <
b1100100 C
b1100100 R
b1100100 \
b1011 9
b1011 v
b1100100 ^
b1011 K
b1100100 P
b1100100 U
b1100100 Z
1`
0f
b1011 L
b1100100 W
b11000 /
b11000 @
b11000 r
b101100000100000 6
b101100000100000 O
b101100000100000 [
b101100000100000 :
b101100000100000 N
b101100000100000 T
b100000 3
b100000 b
b1011 I
b1011 ,
b110 J
b1100100 =
b1100100 S
b1100100 Y
b1100100 y
b110 )
b110 z
b1000001100101100000100000 2
b1000001100101100000100000 G
b101 1
b101 F
b10100 ;
b10100 A
b10100 o
b11111111111111111111111111001001 ("
1"
#50
0"
#55
0(
b100 5
b100 E
b100 l
b11111111 <
b11111111 C
b11111111 R
b11111111 \
b1100 9
b1100 v
b11111111 ^
b101100 8
b101100 B
b101100 u
b1100 K
b11111111 P
b11111111 U
b11111111 Z
0`
1a
b1100 L
b11111111 W
b11100 /
b11100 @
b11100 r
b110000000100100 6
b110000000100100 O
b110000000100100 [
b110000000100100 :
b110000000100100 N
b110000000100100 T
b100100 3
b100100 b
b1100 I
b1100 ,
b111 J
b11111111 =
b11111111 S
b11111111 Y
b11111111 y
b111 )
b111 z
b100101100 >
b100101100 D
b100101100 w
b1011 *
b1011 x
b1011001110110000000100100 2
b1011001110110000000100100 G
b110 1
b110 F
b100101100 )"
b11000 ;
b11000 A
b11000 o
1"
#60
0"
#65
10
b11111111111111111111111111111111 8
b11111111111111111111111111111111 B
b11111111111111111111111111111111 u
b101 5
b101 E
b101 l
b1101 9
b1101 v
b1101 K
0a
1e
b1101 L
b100000 /
b100000 @
b100000 r
b110100000100101 6
b110100000100101 O
b110100000100101 [
b110100000100101 :
b110100000100101 N
b110100000100101 T
b100101 3
b100101 b
b1101 I
b1101 ,
b11111111111111111111111111001001 >
b11111111111111111111111111001001 D
b11111111111111111111111111001001 w
b1010 *
b1010 x
b1010001110110100000100101 2
b1010001110110100000100101 G
b111 1
b111 F
b11100 ;
b11100 A
b11100 o
b101100 *"
1"
#70
0"
#75
0(
00
b101010110101010 8
b101010110101010 B
b101010110101010 u
b101010101010101 <
b101010101010101 C
b101010101010101 R
b101010101010101 \
b101010101010101 X
b1110 9
b1110 v
b101010101010101 ^
1V
b1110 M
b1110 K
b101010101010101 P
b101010101010101 U
b101010101010101 Z
0e
b1 4
b1 Q
b1 k
1+
b111 5
b111 E
b111 l
b0 L
b0 W
b100100 /
b100100 @
b100100 r
b101010101010101 6
b101010101010101 O
b101010101010101 [
b101010101010101 :
b101010101010101 N
b101010101010101 T
b10101 3
b10101 b
1h
b1110 .
b1110 d
b1010 I
b1010 ,
b1110 J
b0 =
b0 S
b0 Y
b0 y
b1110 )
b1110 z
b11111111 >
b11111111 D
b11111111 w
b111 *
b111 x
b111000111011100101010101010101 2
b111000111011100101010101010101 G
b1000 1
b1000 F
b11111111111111111111111111111111 +"
b100000 ;
b100000 A
b100000 o
1"
#80
0"
#85
0(
b100000000 8
b100000000 B
b100000000 u
b11111111111111111111111111111111 <
b11111111111111111111111111111111 C
b11111111111111111111111111111111 R
b11111111111111111111111111111111 \
b11111111111111111111111111111111 ^
b11111111111111111111111111111111 W
b1111 9
b1111 v
b11111111111111111111111111111111 P
b11111111111111111111111111111111 U
b11111111111111111111111111111111 Z
0V
b1111 L
0!
b1111 K
b0 X
1f
b0 4
b0 Q
b0 k
0+
17
b11 5
b11 E
b11 l
b0 M
b101000 /
b101000 @
b101000 r
b111100000100010 6
b111100000100010 O
b111100000100010 [
b111100000100010 :
b111100000100010 N
b111100000100010 T
b100010 3
b100010 b
0h
b0 .
b0 d
b1111 I
b1111 ,
b1101 J
b1101 )
b1101 z
b111011010111100000100010 2
b111011010111100000100010 G
b1001 1
b1001 F
b100100 ;
b100100 A
b100100 o
b101010110101010 ,"
b11111111111111111111111111111111 =
b11111111111111111111111111111111 S
b11111111111111111111111111111111 Y
b11111111111111111111111111111111 y
1"
#90
0"
#95
0!
17
b10 5
b10 E
b10 l
b10000 9
b10000 v
b10000 K
b1100011 8
b1100011 B
b1100011 u
1`
0f
b10000 L
b101100 /
b101100 @
b101100 r
b1000000000100000 6
b1000000000100000 O
b1000000000100000 [
b11111111111111111000000000100000 :
b11111111111111111000000000100000 N
b11111111111111111000000000100000 T
b100000 3
b100000 b
b10000 I
b10000 ,
b1100100 >
b1100100 D
b1100100 w
b110 *
b110 x
b110011011000000000100000 2
b110011011000000000100000 G
b1010 1
b1010 F
b100000000 -"
b101000 ;
b101000 A
b101000 o
1"
#100
0"
#105
10
b110 5
b110 E
b110 l
b11111111 <
b11111111 C
b11111111 R
b11111111 \
b10001 9
b10001 v
b11111111 ^
b11111111111111111111111000000000 8
b11111111111111111111111000000000 B
b11111111111111111111111000000000 u
b10001 K
b11111111 P
b11111111 U
b11111111 Z
0`
1c
b10001 L
b11111111 W
b110000 /
b110000 @
b110000 r
b1000100000100111 6
b1000100000100111 O
b1000100000100111 [
b11111111111111111000100000100111 :
b11111111111111111000100000100111 N
b11111111111111111000100000100111 T
b100111 3
b100111 b
b10001 I
b10001 ,
b111 J
b11111111 =
b11111111 S
b11111111 Y
b11111111 y
b111 )
b111 z
b100000000 >
b100000000 D
b100000000 w
b1111 *
b1111 x
b1111001111000100000100111 2
b1111001111000100000100111 G
b1011 1
b1011 F
b101100 ;
b101100 A
b101100 o
b1100011 ."
1"
#110
0"
#115
10
b11111111111111111111111100000000 8
b11111111111111111111111100000000 B
b11111111111111111111111100000000 u
b10 5
b10 E
b10 l
0!
17
b100000000 <
b100000000 C
b100000000 R
b100000000 \
b10010 9
b10010 v
b100000000 ^
b10010 K
b100000000 P
b100000000 U
b100000000 Z
1`
0c
b10010 L
b100000000 W
b110100 /
b110100 @
b110100 r
b1001000000100000 6
b1001000000100000 O
b1001000000100000 [
b11111111111111111001000000100000 :
b11111111111111111001000000100000 N
b11111111111111111001000000100000 T
b100000 3
b100000 b
b10010 I
b10010 ,
b1111 J
b100000000 =
b100000000 S
b100000000 Y
b100000000 y
b1111 )
b1111 z
b11111111111111111111111000000000 >
b11111111111111111111111000000000 D
b11111111111111111111111000000000 w
b10001 *
b10001 x
b10001011111001000000100000 2
b10001011111001000000100000 G
b1100 1
b1100 F
b11111111111111111111111000000000 /"
b110000 ;
b110000 A
b110000 o
1"
#120
0"
#125
0(
10
b11111111111111111010101010101010 X
b11111111111111111010101010101010 <
b11111111111111111010101010101010 C
b11111111111111111010101010101010 R
b11111111111111111010101010101010 \
1V
b10011 M
b10011 9
b10011 v
b11111111111111111010101010101010 ^
b11111111111111111010101011111111 8
b11111111111111111010101011111111 B
b11111111111111111010101011111111 u
b1 4
b1 Q
b1 k
1+
b101 5
b101 E
b101 l
b10011 K
b11111111111111111010101010101010 P
b11111111111111111010101010101010 U
b11111111111111111010101010101010 Z
0`
b0 L
b0 W
b111000 /
b111000 @
b111000 r
b1010101010101010 6
b1010101010101010 O
b1010101010101010 [
b11111111111111111010101010101010 :
b11111111111111111010101010101010 N
b11111111111111111010101010101010 T
b101010 3
b101010 b
1i
b1101 .
b1101 d
b10101 I
b10101 ,
b10011 J
b0 =
b0 S
b0 Y
b0 y
b10011 )
b10011 z
b11111111 >
b11111111 D
b11111111 w
b111 *
b111 x
b110100111100111010101010101010 2
b110100111100111010101010101010 G
b1101 1
b1101 F
b110100 ;
b110100 A
b110100 o
b11111111111111111111111100000000 0"
1"
#130
0"
#135
1(
00
b0 8
b0 B
b0 u
1!
b0 <
b0 C
b0 R
b0 \
07
b0 ^
0V
b0 9
b0 v
b0 P
b0 U
b0 Z
b0 4
b0 Q
b0 k
0+
b0 5
b0 E
b0 l
b0 K
b0 X
b0 M
b111100 /
b111100 @
b111100 r
b0 6
b0 O
b0 [
b0 :
b0 N
b0 T
b0 3
b0 b
0i
b0 .
b0 d
b0 I
b0 ,
b0 J
b0 )
b0 z
b0 >
b0 D
b0 w
b0 *
b0 x
b0 2
b0 G
b1110 1
b1110 F
b11111111111111111010101011111111 1"
b0 =
b0 S
b0 Y
b0 y
b111000 ;
b111000 A
b111000 o
1"
#140
b100000 %
0"
